xof 0302txt 0064
template Header {
 <3D82AB43-62DA-11cf-AB39-0020AF71E433>
 WORD major;
 WORD minor;
 DWORD flags;
}

template Vector {
 <3D82AB5E-62DA-11cf-AB39-0020AF71E433>
 FLOAT x;
 FLOAT y;
 FLOAT z;
}

template Coords2d {
 <F6F23F44-7686-11cf-8F52-0040333594A3>
 FLOAT u;
 FLOAT v;
}

template Matrix4x4 {
 <F6F23F45-7686-11cf-8F52-0040333594A3>
 array FLOAT matrix[16];
}

template ColorRGBA {
 <35FF44E0-6C7C-11cf-8F52-0040333594A3>
 FLOAT red;
 FLOAT green;
 FLOAT blue;
 FLOAT alpha;
}

template ColorRGB {
 <D3E16E81-7835-11cf-8F52-0040333594A3>
 FLOAT red;
 FLOAT green;
 FLOAT blue;
}

template IndexedColor {
 <1630B820-7842-11cf-8F52-0040333594A3>
 DWORD index;
 ColorRGBA indexColor;
}

template Boolean {
 <4885AE61-78E8-11cf-8F52-0040333594A3>
 WORD truefalse;
}

template Boolean2d {
 <4885AE63-78E8-11cf-8F52-0040333594A3>
 Boolean u;
 Boolean v;
}

template MaterialWrap {
 <4885AE60-78E8-11cf-8F52-0040333594A3>
 Boolean u;
 Boolean v;
}

template TextureFilename {
 <A42790E1-7810-11cf-8F52-0040333594A3>
 STRING filename;
}

template Material {
 <3D82AB4D-62DA-11cf-AB39-0020AF71E433>
 ColorRGBA faceColor;
 FLOAT power;
 ColorRGB specularColor;
 ColorRGB emissiveColor;
 [...]
}

template MeshFace {
 <3D82AB5F-62DA-11cf-AB39-0020AF71E433>
 DWORD nFaceVertexIndices;
 array DWORD faceVertexIndices[nFaceVertexIndices];
}

template MeshFaceWraps {
 <4885AE62-78E8-11cf-8F52-0040333594A3>
 DWORD nFaceWrapValues;
 Boolean2d faceWrapValues;
}

template MeshTextureCoords {
 <F6F23F40-7686-11cf-8F52-0040333594A3>
 DWORD nTextureCoords;
 array Coords2d textureCoords[nTextureCoords];
}

template MeshMaterialList {
 <F6F23F42-7686-11cf-8F52-0040333594A3>
 DWORD nMaterials;
 DWORD nFaceIndexes;
 array DWORD faceIndexes[nFaceIndexes];
 [Material]
}

template MeshNormals {
 <F6F23F43-7686-11cf-8F52-0040333594A3>
 DWORD nNormals;
 array Vector normals[nNormals];
 DWORD nFaceNormals;
 array MeshFace faceNormals[nFaceNormals];
}

template MeshVertexColors {
 <1630B821-7842-11cf-8F52-0040333594A3>
 DWORD nVertexColors;
 array IndexedColor vertexColors[nVertexColors];
}

template Mesh {
 <3D82AB44-62DA-11cf-AB39-0020AF71E433>
 DWORD nVertices;
 array Vector vertices[nVertices];
 DWORD nFaces;
 array MeshFace faces[nFaces];
 [...]
}

Header{
1;
0;
1;
}

Mesh {
 130;
 0.02638;0.18568;-1.25989;,
 0.02461;0.17020;-1.26356;,
 0.03632;0.25803;-1.57228;,
 0.03883;0.27906;-1.58229;,
 0.02317;0.18611;-1.25989;,
 0.03562;0.27949;-1.58229;,
 0.03253;0.25854;-1.57228;,
 0.02082;0.17071;-1.26356;,
 0.01345;0.11521;-0.95002;,
 0.01012;0.09281;-0.95392;,
 0.01720;0.11471;-0.95002;,
 0.00603;0.02685;-0.21473;,
 0.00329;0.00297;-0.21588;,
 0.00742;0.03638;-0.61745;,
 0.01037;0.06148;-0.61291;,
 0.00609;0.06205;-0.61291;,
 0.00237;0.03705;-0.61745;,
 0.00121;0.02749;-0.21473;,
 0.01454;0.09222;-0.95392;,
 -0.00240;0.00373;-0.21588;,
 0.02010;0.15082;-1.26787;,
 0.02082;0.17071;-1.26356;,
 0.03253;0.25854;-1.57228;,
 0.03275;0.24571;-1.58208;,
 0.03632;0.25803;-1.57228;,
 0.02461;0.17020;-1.26356;,
 0.00990;0.07427;-0.95719;,
 0.01454;0.09222;-0.95392;,
 -0.00259;-0.01947;-0.21750;,
 -0.00240;0.00373;-0.21588;,
 0.00237;0.03705;-0.61745;,
 0.00209;0.01566;-0.61992;,
 0.00742;0.03638;-0.61745;,
 0.01012;0.09281;-0.95392;,
 0.00329;0.00297;-0.21588;,
 0.03555;0.26672;-1.60181;,
 0.03275;0.24571;-1.58208;,
 0.03253;0.25854;-1.57228;,
 0.03632;0.25803;-1.57228;,
 0.03878;0.29098;-1.61434;,
 0.03562;0.27949;-1.58229;,
 0.03883;0.27906;-1.58229;,
 -0.00518;0.03294;-0.20281;,
 -0.00422;0.02632;-0.19142;,
 0.01096;0.02429;-0.19142;,
 0.01363;0.03043;-0.20281;,
 0.00666;-0.02184;-0.20697;,
 0.00534;-0.01790;-0.19471;,
 -0.00984;-0.01587;-0.19471;,
 -0.01215;-0.01934;-0.20697;,
 -0.00407;0.05420;0.54015;,
 0.01812;0.05124;0.54015;,
 0.01493;0.05824;0.52219;,
 0.00083;0.06002;0.52309;,
 -0.00408;0.02322;0.53114;,
 0.01002;0.02134;0.53114;,
 0.01601;0.00701;-0.20422;,
 0.01298;0.00614;-0.19241;,
 -0.01361;0.01096;-0.20422;,
 -0.01092;0.00933;-0.19241;,
 0.00066;0.00494;-0.21258;,
 0.01000;-0.06784;-0.21674;,
 -0.01136;-0.08520;-0.21792;,
 0.02550;-0.05367;-0.21580;,
 0.04011;-0.02399;-0.21396;,
 0.05388;-0.00215;-0.21258;,
 0.04631;0.02254;-0.21120;,
 0.03998;0.05501;-0.20936;,
 0.02874;0.07274;-0.20841;,
 0.01267;0.09509;-0.20724;,
 -0.00868;0.07773;-0.20841;,
 -0.02418;0.06356;-0.20936;,
 -0.03879;0.03388;-0.21120;,
 -0.05256;0.01204;-0.21258;,
 -0.04499;-0.01265;-0.21396;,
 -0.03866;-0.04512;-0.21580;,
 -0.02742;-0.06285;-0.21674;,
 0.00058;0.00434;-0.20226;,
 -0.01144;-0.08580;-0.20761;,
 0.00992;-0.06844;-0.20643;,
 0.02542;-0.05427;-0.20548;,
 0.04003;-0.02459;-0.20364;,
 0.05380;-0.00275;-0.20226;,
 0.04623;0.02194;-0.20088;,
 0.03990;0.05441;-0.19904;,
 0.02866;0.07214;-0.19810;,
 0.01259;0.09449;-0.19692;,
 -0.00876;0.07713;-0.19810;,
 -0.02426;0.06296;-0.19904;,
 -0.03887;0.03328;-0.20088;,
 -0.05264;0.01144;-0.20226;,
 -0.04507;-0.01325;-0.20364;,
 -0.03874;-0.04572;-0.20548;,
 -0.02750;-0.06345;-0.20643;,
 -0.00082;0.03599;-0.25249;,
 -0.00129;0.03245;-0.20379;,
 0.00974;0.03098;-0.20379;,
 0.01022;0.03452;-0.25249;,
 0.00109;-0.01953;-0.25823;,
 0.00056;-0.02348;-0.20726;,
 -0.00669;-0.02251;-0.20726;,
 -0.00617;-0.01856;-0.25823;,
 -0.00563;0.00745;-0.25556;,
 -0.00613;0.00369;-0.20562;,
 0.00738;0.00572;-0.25556;,
 0.00688;0.00196;-0.20562;,
 -0.01092;0.00933;-0.19241;,
 -0.00984;-0.01587;-0.19471;,
 -0.00966;-0.01570;0.00257;,
 -0.01099;0.00699;0.00306;,
 0.01244;0.00386;0.00306;,
 0.01298;0.00614;-0.19241;,
 0.01096;0.02429;-0.19142;,
 0.01066;0.02318;0.00245;,
 0.00521;-0.01769;0.00257;,
 0.00534;-0.01790;-0.19471;,
 0.01114;0.02762;0.17570;,
 -0.00419;0.02516;0.00245;,
 -0.00349;0.02957;0.17570;,
 -0.00883;-0.01032;0.17722;,
 -0.00999;0.01317;0.17731;,
 0.01309;0.01010;0.17731;,
 0.00582;-0.01228;0.17722;,
 -0.00156;0.04011;0.34959;,
 0.01243;0.03840;0.34958;,
 -0.00820;0.02498;0.35205;,
 -0.00711;0.00155;0.35244;,
 0.01445;0.02196;0.35205;,
 0.00727;-0.00037;0.35244;,
 -0.00422;0.02632;-0.19142;;
 
 191;
 3;0,1,2;,
 3;0,2,3;,
 3;4,5,6;,
 3;4,6,7;,
 3;0,3,5;,
 3;0,5,4;,
 3;8,4,7;,
 3;8,7,9;,
 3;10,0,4;,
 3;10,4,8;,
 3;11,12,13;,
 3;11,13,14;,
 3;15,8,9;,
 3;15,9,16;,
 3;17,11,14;,
 3;17,14,15;,
 3;14,10,8;,
 3;14,8,15;,
 3;10,18,1;,
 3;1,0,10;,
 3;14,13,18;,
 3;18,10,14;,
 3;17,15,16;,
 3;16,19,17;,
 3;20,21,22;,
 3;20,22,23;,
 3;20,23,24;,
 3;20,24,25;,
 3;26,20,25;,
 3;26,25,27;,
 3;28,29,30;,
 3;28,30,31;,
 3;31,26,27;,
 3;31,27,32;,
 3;21,20,26;,
 3;26,33,21;,
 3;31,30,33;,
 3;33,26,31;,
 3;28,31,32;,
 3;32,34,28;,
 3;35,36,37;,
 3;35,38,36;,
 3;39,40,41;,
 3;35,39,41;,
 3;35,41,38;,
 3;35,37,40;,
 3;35,40,39;,
 3;42,43,44;,
 3;42,44,45;,
 3;46,47,48;,
 3;46,48,49;,
 3;50,51,52;,
 3;50,52,53;,
 3;54,55,51;,
 3;54,51,50;,
 3;56,57,47;,
 3;56,47,46;,
 3;45,44,57;,
 3;45,57,56;,
 3;58,59,43;,
 3;58,43,42;,
 3;49,48,59;,
 3;49,59,58;,
 3;60,61,62;,
 3;60,63,61;,
 3;60,64,63;,
 3;60,65,64;,
 3;60,66,65;,
 3;60,67,66;,
 3;60,68,67;,
 3;60,69,68;,
 3;60,70,69;,
 3;60,71,70;,
 3;60,72,71;,
 3;60,73,72;,
 3;60,74,73;,
 3;60,75,74;,
 3;60,76,75;,
 3;60,62,76;,
 3;77,78,79;,
 3;77,79,80;,
 3;77,80,81;,
 3;77,81,82;,
 3;77,82,83;,
 3;77,83,84;,
 3;77,84,85;,
 3;77,85,86;,
 3;77,86,87;,
 3;77,87,88;,
 3;77,88,89;,
 3;77,89,90;,
 3;77,90,91;,
 3;77,91,92;,
 3;77,92,93;,
 3;77,93,78;,
 3;94,95,96;,
 3;94,96,97;,
 3;98,99,100;,
 3;98,100,101;,
 3;102,103,95;,
 3;102,95,94;,
 3;104,98,101;,
 3;104,101,97;,
 3;97,101,102;,
 3;97,102,94;,
 3;96,105,104;,
 3;104,97,96;,
 3;100,103,102;,
 3;102,101,100;,
 3;104,105,99;,
 3;99,98,104;,
 3;106,107,108;,
 3;106,108,109;,
 3;110,111,112;,
 3;110,112,113;,
 3;114,115,111;,
 3;114,111,110;,
 3;108,107,115;,
 3;108,115,114;,
 3;116,113,117;,
 3;116,117,118;,
 3;109,108,119;,
 3;109,119,120;,
 3;110,113,116;,
 3;110,116,121;,
 3;122,114,110;,
 3;122,110,121;,
 3;119,108,114;,
 3;119,114,122;,
 3;118,117,109;,
 3;118,109,120;,
 3;123,53,52;,
 3;123,52,124;,
 3;116,118,123;,
 3;116,123,124;,
 3;54,50,125;,
 3;54,125,126;,
 3;120,119,126;,
 3;120,126,125;,
 3;52,51,127;,
 3;52,127,124;,
 3;121,116,124;,
 3;121,124,127;,
 3;127,51,55;,
 3;127,55,128;,
 3;128,122,121;,
 3;128,121,127;,
 3;128,55,54;,
 3;128,54,126;,
 3;119,122,128;,
 3;119,128,126;,
 3;125,50,53;,
 3;125,53,123;,
 3;123,118,120;,
 3;123,120,125;,
 3;117,113,112;,
 3;117,112,129;,
 3;129,106,109;,
 3;129,109,117;,
 3;61,79,78;,
 3;61,78,62;,
 3;63,80,79;,
 3;63,79,61;,
 3;64,81,80;,
 3;64,80,63;,
 3;64,65,82;,
 3;64,82,81;,
 3;66,83,82;,
 3;66,82,65;,
 3;67,84,83;,
 3;67,83,66;,
 3;68,85,84;,
 3;68,84,67;,
 3;68,69,86;,
 3;68,86,85;,
 3;69,70,87;,
 3;69,87,86;,
 3;70,71,88;,
 3;70,88,87;,
 3;71,72,89;,
 3;71,89,88;,
 3;73,90,89;,
 3;73,89,72;,
 3;73,74,91;,
 3;73,91,90;,
 3;75,92,91;,
 3;75,91,74;,
 3;76,93,92;,
 3;76,92,75;,
 3;76,62,78;,
 3;76,78,93;;
 
 MeshMaterialList {
  3;
  191;
  0,
  0,
  0,
  0,
  0,
  0,
  0,
  0,
  0,
  0,
  0,
  0,
  0,
  0,
  0,
  0,
  0,
  0,
  0,
  0,
  0,
  0,
  0,
  0,
  0,
  0,
  0,
  0,
  0,
  0,
  0,
  0,
  0,
  0,
  0,
  0,
  0,
  0,
  0,
  0,
  0,
  0,
  0,
  0,
  0,
  0,
  0,
  0,
  0,
  0,
  0,
  0,
  0,
  0,
  0,
  0,
  0,
  0,
  0,
  0,
  0,
  0,
  0,
  0,
  0,
  0,
  0,
  0,
  0,
  0,
  0,
  0,
  0,
  0,
  0,
  0,
  0,
  0,
  0,
  0,
  0,
  0,
  0,
  0,
  0,
  0,
  0,
  0,
  0,
  0,
  0,
  0,
  0,
  0,
  0,
  0,
  0,
  0,
  0,
  0,
  0,
  0,
  0,
  0,
  0,
  0,
  0,
  0,
  0,
  0,
  0,
  0,
  0,
  0,
  0,
  0,
  0,
  0,
  0,
  0,
  0,
  0,
  0,
  0,
  0,
  0,
  0,
  0,
  0,
  0,
  0,
  0,
  0,
  0,
  0,
  0,
  0,
  0,
  0,
  0,
  0,
  0,
  0,
  0,
  0,
  0,
  0,
  0,
  0,
  0,
  0,
  0,
  0,
  0,
  0,
  0,
  0,
  0,
  0,
  0,
  0,
  0,
  0,
  0,
  0,
  0,
  0,
  0,
  0,
  0,
  0,
  0,
  0,
  0,
  0,
  0,
  0,
  0,
  0,
  0,
  0,
  0,
  0,
  0,
  0,
  0,
  0,
  0,
  0,
  0,
  0;;
  Material {
   1.000000;1.000000;1.000000;1.000000;;
   5.000000;
   0.000000;0.000000;0.000000;;
   0.000000;0.000000;0.000000;;
   TextureFilename {
    "texture.png";
   }
  }
  Material {
   0.800000;0.800000;0.800000;1.000000;;
   5.000000;
   0.000000;0.000000;0.000000;;
   0.000000;0.000000;0.000000;;
   TextureFilename {
    "../agito_rust.png";
   }
  }
  Material {
   0.310000;0.310000;0.310000;1.000000;;
   5.000000;
   0.100000;0.100000;0.100000;;
   0.700000;0.700000;0.700000;;
   TextureFilename {
    "dios.png";
   }
  }
 }
 MeshNormals {
  220;
  0.993295;-0.115605;0.000688;,
  0.131610;0.987448;0.087319;,
  0.993461;-0.114170;0.000722;,
  -0.988684;0.150014;0.000722;,
  0.993200;-0.116330;0.004647;,
  -0.988997;0.147861;0.004647;,
  0.993288;-0.115564;0.004828;,
  -0.988882;0.148624;0.004828;,
  0.993336;-0.115172;0.004303;,
  -0.988826;0.149014;0.004303;,
  0.993284;-0.115640;0.003637;,
  -0.988898;0.148549;0.003637;,
  0.129377;0.970694;0.202522;,
  -0.989038;0.147639;0.002480;,
  0.993072;-0.117494;0.001918;,
  -0.989178;0.146705;0.001918;,
  0.993100;-0.117262;0.001252;,
  -0.989145;0.146936;0.001252;,
  0.993233;-0.116137;0.000981;,
  -0.988979;0.148056;0.000981;,
  -0.999873;0.011815;-0.010734;,
  0.967443;-0.252848;-0.011081;,
  -0.999895;0.009363;-0.011081;,
  -0.999258;0.011141;-0.036857;,
  0.971223;-0.236094;-0.031410;,
  -0.999155;0.026522;-0.031410;,
  -0.999100;0.031412;-0.028493;,
  0.972979;-0.229396;-0.026275;,
  -0.999095;0.033447;-0.026275;,
  0.970969;-0.237955;-0.024441;,
  0.968905;-0.246292;-0.023712;,
  -0.999590;0.016073;-0.023712;,
  -0.999740;0.015079;-0.017105;,
  0.968326;-0.249298;-0.013982;,
  -0.999817;0.013021;-0.013982;,
  0.123969;0.930059;0.345863;,
  -0.994876;0.050150;-0.087782;,
  0.980168;-0.181733;-0.079012;,
  -0.993551;0.081328;-0.079012;,
  -0.993444;0.087640;-0.073406;,
  0.127672;0.957907;0.257128;,
  -0.131468;-0.986383;0.098820;,
  0.128998;0.984372;0.119883;,
  -0.037208;-0.279165;0.959522;,
  0.132174;0.983467;0.123781;,
  -0.037209;-0.279165;0.959522;,
  0.127673;0.957907;0.257127;,
  -0.129534;-0.971877;0.196662;,
  0.115028;0.863038;0.491868;,
  -0.126370;-0.948137;0.291663;,
  0.115029;0.863038;0.491867;,
  -0.126370;-0.948137;0.291663;,
  0.124201;0.931867;0.340877;,
  0.985498;-0.111706;0.127728;,
  0.131835;0.928136;0.348114;,
  -0.989954;0.082328;0.114947;,
  0.955685;-0.187077;0.227307;,
  -0.946192;0.205786;0.249744;,
  0.995804;0.091496;-0.001502;,
  0.949769;-0.312945;0.002138;,
  -0.998578;-0.053265;0.002138;,
  0.996868;-0.079075;0.000931;,
  -0.982684;0.185285;0.000937;,
  0.132107;0.991186;-0.009944;,
  0.129359;0.990630;-0.043805;,
  0.950036;-0.312009;0.009068;,
  0.131988;0.990292;-0.043589;,
  -0.998591;-0.052292;0.009067;,
  0.995011;-0.099760;-0.000629;,
  -0.985629;0.168921;-0.000544;,
  0.121076;0.988671;-0.088717;,
  0.951578;-0.306972;0.016340;,
  0.122863;0.988476;-0.088434;,
  -0.998760;-0.047027;0.016339;,
  0.998005;-0.062614;-0.008065;,
  -0.977487;0.210784;-0.009458;,
  0.007749;0.058134;-0.998279;,
  0.007749;0.058134;-0.998279;,
  0.007751;0.058134;-0.998279;,
  0.007751;0.058134;-0.998279;,
  0.007749;0.058133;-0.998279;,
  0.007749;0.058135;-0.998279;,
  0.007750;0.058135;-0.998279;,
  0.007750;0.058134;-0.998279;,
  0.007750;0.058134;-0.998279;,
  0.007749;0.058134;-0.998279;,
  0.007749;0.058134;-0.998279;,
  0.007749;0.058134;-0.998279;,
  0.007749;0.058134;-0.998279;,
  0.007749;0.058135;-0.998279;,
  0.007749;0.058134;-0.998279;,
  0.007749;0.058134;-0.998279;,
  0.007749;0.058134;-0.998279;,
  -0.007749;-0.058134;0.998279;,
  -0.007750;-0.058134;0.998279;,
  -0.007749;-0.058134;0.998279;,
  -0.007749;-0.058134;0.998279;,
  -0.007750;-0.058135;0.998279;,
  -0.007750;-0.058134;0.998279;,
  -0.007750;-0.058133;0.998279;,
  -0.007749;-0.058134;0.998279;,
  -0.007749;-0.058134;0.998279;,
  -0.007750;-0.058134;0.998279;,
  -0.007750;-0.058134;0.998279;,
  -0.007750;-0.058134;0.998279;,
  -0.007750;-0.058134;0.998279;,
  -0.007750;-0.058134;0.998279;,
  -0.007750;-0.058134;0.998279;,
  -0.007749;-0.058134;0.998279;,
  -0.007750;-0.058134;0.998279;,
  0.131759;0.988572;0.073250;,
  -0.131714;-0.988223;-0.077896;,
  0.131759;0.988572;0.073250;,
  -0.131713;-0.988223;-0.077896;,
  0.131759;0.988572;0.073250;,
  -0.131713;-0.988223;-0.077896;,
  0.985462;-0.169869;-0.002903;,
  -0.995552;0.094165;-0.002903;,
  0.010611;0.103484;-0.994575;,
  -0.995559;0.094096;-0.002989;,
  0.127498;0.956587;0.262078;,
  0.126810;0.951451;0.280466;,
  0.126812;0.951450;0.280466;,
  0.128136;0.961377;0.243588;,
  0.129958;0.975061;0.179908;,
  0.131609;0.987449;0.087319;,
  0.131122;0.983788;0.122341;,
  0.131123;0.983788;0.122341;,
  0.993181;-0.116556;0.002480;,
  -0.988899;0.148586;0.000688;,
  0.972451;-0.231361;-0.028493;,
  0.967294;-0.250965;-0.036857;,
  0.968790;-0.247291;-0.017105;,
  -0.999397;0.024660;-0.024441;,
  0.968063;-0.250475;-0.010734;,
  0.981719;-0.175613;-0.073406;,
  0.973282;-0.212171;-0.087782;,
  0.984608;-0.163343;-0.062185;,
  0.985343;-0.157228;-0.066174;,
  -0.992126;0.106333;-0.066174;,
  -0.993018;0.100239;-0.062184;,
  -0.037209;-0.279164;0.959522;,
  0.939158;-0.313744;0.139811;,
  0.925796;-0.319155;0.202587;,
  0.960802;0.087100;0.263198;,
  0.990678;0.098645;0.093945;,
  -0.927128;0.350282;0.133173;,
  -0.905067;0.329875;0.268396;,
  -0.976258;-0.063296;0.207159;,
  -0.993478;-0.051783;0.101585;,
  -0.986159;0.165784;0.002544;,
  -0.986146;0.165860;0.002506;,
  0.013576;0.101844;-0.994708;,
  0.013310;0.102900;-0.994603;,
  0.013427;0.103787;-0.994509;,
  0.016318;0.103118;-0.994535;,
  0.013928;0.104504;-0.994427;,
  0.995155;-0.098289;0.002544;,
  0.985450;-0.169937;-0.002989;,
  0.995162;-0.098213;0.002506;,
  -0.999724;0.021913;-0.008505;,
  -0.999727;0.021698;-0.008639;,
  0.970565;-0.240691;-0.008505;,
  0.970512;-0.240900;-0.008639;,
  -0.132106;-0.991174;0.011029;,
  -0.132085;-0.991014;0.021089;,
  0.132107;0.991186;-0.009944;,
  0.994579;0.103599;-0.008966;,
  -0.131951;-0.990007;0.049740;,
  -0.131951;-0.990008;0.049740;,
  -0.932278;0.361648;-0.008250;,
  -0.936656;0.350247;-0.001461;,
  -0.999400;-0.026139;0.022724;,
  -0.962273;0.271273;-0.021028;,
  0.979064;0.198494;-0.045100;,
  0.999781;0.005046;-0.020292;,
  0.993099;0.115677;-0.019333;,
  0.957666;-0.286982;0.022725;,
  -0.131518;-0.986755;0.094963;,
  -0.131134;-0.983886;0.121542;,
  -0.131135;-0.983886;0.121542;,
  -0.131519;-0.986755;0.094963;,
  -0.884910;0.463258;-0.048229;,
  -0.921545;0.387714;-0.020799;,
  0.646477;-0.761919;-0.039350;,
  0.661176;-0.749242;-0.038498;,
  0.631538;-0.774303;-0.040187;,
  0.631539;-0.774302;-0.040186;,
  0.761266;-0.647659;-0.031805;,
  0.836383;-0.547557;-0.025392;,
  0.873108;-0.487049;-0.021584;,
  0.873108;-0.487049;-0.021583;,
  0.991235;-0.132113;0.000004;,
  0.991235;-0.132114;0.000004;,
  0.965797;0.258319;0.022542;,
  0.974291;0.224346;0.020628;,
  0.950598;0.309384;0.025395;,
  0.904322;0.425665;0.031807;,
  0.828937;0.557986;0.038928;,
  0.828937;0.557986;0.038928;,
  0.812291;0.581866;0.040190;,
  0.812291;0.581866;0.040190;,
  -0.631538;0.774303;0.040188;,
  -0.661177;0.749242;0.038499;,
  -0.646477;0.761919;0.039351;,
  -0.631538;0.774303;0.040187;,
  -0.836383;0.547557;0.025393;,
  -0.761266;0.647659;0.031806;,
  -0.873108;0.487048;0.021583;,
  -0.873108;0.487048;0.021584;,
  -0.991235;0.132114;-0.000002;,
  -0.991235;0.132113;-0.000002;,
  -0.970193;-0.241369;-0.021588;,
  -0.970193;-0.241369;-0.021588;,
  -0.950598;-0.309384;-0.025397;,
  -0.904321;-0.425665;-0.031808;,
  -0.828937;-0.557986;-0.038928;,
  -0.828937;-0.557986;-0.038927;,
  -0.812291;-0.581866;-0.040189;,
  -0.812291;-0.581866;-0.040189;;
  191;
  3;8,10,6;,
  3;8,6,4;,
  3;9,5,7;,
  3;9,7,11;,
  3;120,121,122;,
  3;120,122,123;,
  3;13,9,11;,
  3;13,11,15;,
  3;12,120,123;,
  3;12,123,124;,
  3;0,2,18;,
  3;0,18,16;,
  3;17,13,15;,
  3;17,15,19;,
  3;1,125,126;,
  3;1,126,127;,
  3;126,12,124;,
  3;126,124,127;,
  3;128,14,10;,
  3;10,8,128;,
  3;16,18,14;,
  3;14,128,16;,
  3;129,17,19;,
  3;19,3,129;,
  3;26,28,25;,
  3;26,25,23;,
  3;130,131,24;,
  3;130,24,27;,
  3;29,130,27;,
  3;29,27,30;,
  3;20,22,34;,
  3;20,34,32;,
  3;132,29,30;,
  3;132,30,33;,
  3;28,26,133;,
  3;133,31,28;,
  3;32,34,31;,
  3;31,133,32;,
  3;134,132,33;,
  3;33,21,134;,
  3;39,36,38;,
  3;135,37,136;,
  3;35,35,35;,
  3;135,137,138;,
  3;135,138,37;,
  3;39,38,139;,
  3;39,139,140;,
  3;50,46,40;,
  3;50,40,48;,
  3;49,41,47;,
  3;49,47,51;,
  3;54,52,42;,
  3;54,42,44;,
  3;45,43,45;,
  3;45,45,141;,
  3;56,53,142;,
  3;56,142,143;,
  3;144,145,53;,
  3;144,53,56;,
  3;57,55,146;,
  3;57,146,147;,
  3;148,149,55;,
  3;148,55,57;,
  3;76,78,77;,
  3;76,79,78;,
  3;76,80,79;,
  3;76,81,80;,
  3;76,82,81;,
  3;76,83,82;,
  3;76,84,83;,
  3;76,85,84;,
  3;76,86,85;,
  3;76,87,86;,
  3;76,88,87;,
  3;76,89,88;,
  3;76,90,89;,
  3;76,91,90;,
  3;76,92,91;,
  3;76,77,92;,
  3;109,93,94;,
  3;109,94,95;,
  3;109,95,96;,
  3;109,96,97;,
  3;109,97,98;,
  3;109,98,99;,
  3;109,99,100;,
  3;109,100,101;,
  3;109,101,102;,
  3;109,102,103;,
  3;109,103,104;,
  3;109,104,105;,
  3;109,105,106;,
  3;109,106,107;,
  3;109,107,108;,
  3;109,108,93;,
  3;110,112,110;,
  3;110,110,114;,
  3;113,111,113;,
  3;113,113,115;,
  3;119,117,150;,
  3;119,150,151;,
  3;118,152,153;,
  3;118,153,154;,
  3;154,153,155;,
  3;154,155,156;,
  3;157,116,158;,
  3;158,159,157;,
  3;160,117,119;,
  3;119,161,160;,
  3;158,116,162;,
  3;162,163,158;,
  3;55,149,60;,
  3;55,60,62;,
  3;61,53,145;,
  3;61,145,58;,
  3;59,142,53;,
  3;59,53,61;,
  3;164,47,41;,
  3;164,41,165;,
  3;64,166,63;,
  3;64,63,66;,
  3;62,60,67;,
  3;62,67,69;,
  3;61,58,167;,
  3;61,167,68;,
  3;65,59,61;,
  3;65,61,68;,
  3;168,164,165;,
  3;168,165,169;,
  3;170,171,62;,
  3;170,62,69;,
  3;72,44,42;,
  3;72,42,70;,
  3;64,66,72;,
  3;64,72,70;,
  3;172,173,75;,
  3;172,75,73;,
  3;69,67,73;,
  3;69,73,75;,
  3;174,175,74;,
  3;174,74,176;,
  3;68,167,176;,
  3;68,176,74;,
  3;74,175,177;,
  3;74,177,71;,
  3;71,65,68;,
  3;71,68,74;,
  3;178,179,180;,
  3;178,180,181;,
  3;168,169,178;,
  3;168,178,181;,
  3;75,173,182;,
  3;75,182,183;,
  3;183,170,69;,
  3;183,69,75;,
  3;63,166,40;,
  3;63,40,46;,
  3;146,55,62;,
  3;146,62,171;,
  3;184,185,186;,
  3;184,186,187;,
  3;188,189,185;,
  3;188,185,184;,
  3;190,191,189;,
  3;190,189,188;,
  3;190,192,193;,
  3;190,193,191;,
  3;194,195,193;,
  3;194,193,192;,
  3;196,197,195;,
  3;196,195,194;,
  3;198,199,197;,
  3;198,197,196;,
  3;198,200,201;,
  3;198,201,199;,
  3;202,203,204;,
  3;202,204,205;,
  3;203,206,207;,
  3;203,207,204;,
  3;206,208,209;,
  3;206,209,207;,
  3;210,211,209;,
  3;210,209,208;,
  3;210,212,213;,
  3;210,213,211;,
  3;214,215,213;,
  3;214,213,212;,
  3;216,217,215;,
  3;216,215,214;,
  3;216,218,219;,
  3;216,219,217;;
 }
 MeshTextureCoords {
  130;
  0.112108;0.286971;,
  0.078806;0.286971;,
  0.078806;0.369816;,
  0.112108;0.372690;,
  0.112108;0.286971;,
  0.112108;0.372690;,
  0.078806;0.369816;,
  0.078806;0.286971;,
  0.112108;0.205549;,
  0.078806;0.205549;,
  0.112108;0.205549;,
  0.112108;0.008698;,
  0.078806;0.008698;,
  0.078806;0.114522;,
  0.112108;0.114522;,
  0.112108;0.114522;,
  0.078806;0.114522;,
  0.112108;0.008698;,
  0.078806;0.205549;,
  0.078806;0.008698;,
  0.040812;0.286971;,
  0.078806;0.286971;,
  0.078806;0.369816;,
  0.043252;0.372293;,
  0.078806;0.369816;,
  0.078806;0.286971;,
  0.040812;0.205549;,
  0.078806;0.205549;,
  0.040812;0.008698;,
  0.078806;0.008698;,
  0.078806;0.114522;,
  0.040812;0.114522;,
  0.078806;0.114522;,
  0.078806;0.205549;,
  0.078806;0.008698;,
  0.042975;0.380955;,
  0.043252;0.372293;,
  0.078806;0.369816;,
  0.078806;0.369816;,
  0.078750;0.382920;,
  0.079065;0.378590;,
  0.079154;0.378769;,
  0.526775;0.091847;,
  0.537331;0.089616;,
  0.534857;0.095530;,
  0.523710;0.099174;,
  0.527013;0.056565;,
  0.537577;0.061153;,
  0.540051;0.055240;,
  0.530079;0.049237;,
  0.986445;0.578888;,
  0.986445;0.578888;,
  0.963763;0.600046;,
  0.964914;0.600044;,
  0.971049;0.553343;,
  0.971049;0.553343;,
  0.524615;0.082851;,
  0.535612;0.082986;,
  0.529442;0.071315;,
  0.539507;0.073676;,
  0.163999;0.250166;,
  0.207700;0.086386;,
  0.163999;0.040131;,
  0.238926;0.123557;,
  0.263372;0.195965;,
  0.288298;0.250166;,
  0.263372;0.304368;,
  0.238926;0.376775;,
  0.207700;0.413947;,
  0.163999;0.460202;,
  0.207700;0.413947;,
  0.238926;0.376775;,
  0.263372;0.304368;,
  0.288298;0.250166;,
  0.263372;0.195965;,
  0.238926;0.123557;,
  0.207700;0.086386;,
  0.163999;0.250166;,
  0.163999;0.040131;,
  0.207700;0.086386;,
  0.238926;0.123557;,
  0.263372;0.195965;,
  0.288298;0.250166;,
  0.263372;0.304368;,
  0.238926;0.376775;,
  0.207700;0.413947;,
  0.163999;0.460202;,
  0.207700;0.413947;,
  0.238926;0.376775;,
  0.263372;0.304368;,
  0.288298;0.250166;,
  0.263372;0.195965;,
  0.238926;0.123557;,
  0.207700;0.086386;,
  0.551735;0.170347;,
  0.504013;0.174076;,
  0.502449;0.173967;,
  0.550172;0.170238;,
  0.548023;0.115783;,
  0.498052;0.119452;,
  0.499080;0.119524;,
  0.549052;0.115855;,
  0.550636;0.141590;,
  0.501689;0.145289;,
  0.548792;0.141462;,
  0.499846;0.145160;,
  0.040354;0.578041;,
  0.037909;0.552670;,
  0.290836;0.549360;,
  0.291848;0.576647;,
  0.291848;0.576647;,
  0.040354;0.578041;,
  0.042824;0.600089;,
  0.292330;0.599910;,
  0.290836;0.549360;,
  0.037909;0.552670;,
  0.515659;0.599838;,
  0.292330;0.599910;,
  0.515659;0.599838;,
  0.515091;0.548176;,
  0.516575;0.576340;,
  0.516575;0.576340;,
  0.515091;0.548176;,
  0.740235;0.599866;,
  0.740231;0.599868;,
  0.742332;0.576667;,
  0.740507;0.549152;,
  0.742332;0.576667;,
  0.740507;0.549152;,
  0.042824;0.600089;;
 }
}
